module gitlab.com/ackersonde/hetzner

go 1.22

require (
	github.com/hetznercloud/hcloud-go v1.59.1
	golang.org/x/crypto v0.29.0
)

require (
	github.com/beorn7/perks v1.0.1 // indirect
	github.com/cespare/xxhash/v2 v2.3.0 // indirect
	github.com/klauspost/compress v1.17.11 // indirect
	github.com/munnerz/goautoneg v0.0.0-20191010083416-a7dc8b61c822 // indirect
	github.com/prometheus/client_golang v1.20.5 // indirect
	github.com/prometheus/client_model v0.6.1 // indirect
	github.com/prometheus/common v0.60.1 // indirect
	github.com/prometheus/procfs v0.15.1 // indirect
	golang.org/x/net v0.31.0 // indirect
	golang.org/x/sys v0.27.0 // indirect
	golang.org/x/text v0.20.0 // indirect
	google.golang.org/protobuf v1.35.2 // indirect
)
